Métodos Estratégitos em Finanças Quantitativas - Day 3B Practice
…
Expand your regression model from Question 1(b) to become a multiple regression model that also includes students’ sex (sex) as a predictor. What are the two predictor variables’ partial effects?

Statistically test whether the effect of television watching depends on students’ sex and generate a plot that shows the model’s predictions (to help you interpret any interaction effect).

Click here for the answer key

Answer (a)

library(tidyverse)
political <- 
  read_csv("political.csv") |> 
  mutate(sex = factor(sex, levels = c(0, 1), labels = c("Male", "Female"))) |> 
  print()

#> # A tibble: 59 × 9
#>    student  year sex    voting     read_news read_edit tv_news ethical_practical
#>      <dbl> <dbl> <fct>  <chr>          <dbl>     <dbl>   <dbl>             <dbl>
#>  1       1     1 Female Not Regis…         3         1       0                 2
#>  2       2     4 Female Voted              1         1       3                 2
#>  3       3     2 Male   Voted              4         1       3                 2
#>  4       4     3 Female Voted              3         1       0                 3
#>  5       5     1 Female Voted              2         0       0                 2
#>  6       6     2 Female Didn't Vo…         3         1       3                 2
#>  7       7     1 Male   Didn't Vo…         4         1       0                 4
#>  8       8     3 Female Voted              2         1       1                 2
#>  9       9     4 Male   Voted              3         1       0                 4
#> 10      10     4 Female Voted              3         0       4                 3
#> # ℹ 49 more rows
#> # ℹ 1 more variable: informed <dbl>
…
